module github.com/cloudfoundry/bosh-cli

go 1.15

require (
	cloud.google.com/go/storage v1.15.0 // indirect
	code.cloudfoundry.org/clock v1.0.0
	code.cloudfoundry.org/workpool v0.0.0-20200131000409-2ac56b354115
	github.com/aws/aws-sdk-go v1.38.25 // indirect
	github.com/cheggaaa/pb/v3 v3.0.8
	github.com/cloudfoundry/bosh-agent v2.367.0+incompatible
	github.com/cloudfoundry/bosh-davcli v0.0.44
	github.com/cloudfoundry/bosh-gcscli v0.0.18
	github.com/cloudfoundry/bosh-s3cli v0.0.97
	github.com/cloudfoundry/bosh-utils v0.0.252
	github.com/cloudfoundry/config-server v0.1.21
	github.com/cloudfoundry/socks5-proxy v0.2.3
	github.com/cppforlife/go-patch v0.2.0
	github.com/cppforlife/go-semi-semantic v0.0.0-20160921010311-576b6af77ae4
	github.com/dustin/go-humanize v1.0.0
	github.com/fatih/color v1.10.0
	github.com/golang/groupcache v0.0.0-20210331224755-41bb18bfe9da // indirect
	github.com/golang/mock v1.5.0
	github.com/hashicorp/errwrap v1.1.0 // indirect
	github.com/hashicorp/go-multierror v1.1.1
	github.com/jessevdk/go-flags v1.5.0
	github.com/mattn/go-isatty v0.0.12
	github.com/onsi/ginkgo v1.16.1
	github.com/onsi/gomega v1.11.0
	github.com/vito/go-interact v1.0.0
	golang.org/x/crypto v0.0.0-20210421170649-83a5a9bb288b
	golang.org/x/mod v0.4.2 // indirect
	golang.org/x/term v0.0.0-20210422114643-f5beecf764ed // indirect
	google.golang.org/genproto v0.0.0-20210423144448-3a41ef94ed2b // indirect
	gopkg.in/yaml.v2 v2.4.0
)
